\babel@toc {brazil}{}
\contentsline {section}{\numberline {1}Descri\IeC {\c c}\IeC {\~a}o do Problema}{3}{section.1}
\contentsline {section}{\numberline {2}Problema}{3}{section.2}
\contentsline {section}{\numberline {3}Proposta}{3}{section.3}
\contentsline {subsection}{\numberline {3.1}Parte II}{3}{subsection.3.1}
\contentsline {subsection}{\numberline {3.2}Parte III}{3}{subsection.3.2}
\contentsline {section}{\numberline {4}Solu\IeC {\c c}\IeC {\~a}o}{4}{section.4}
\contentsline {subsection}{\numberline {4.1}Parte I e II}{4}{subsection.4.1}
\contentsline {subsection}{\numberline {4.2}Parte III}{6}{subsection.4.2}
\contentsline {section}{\numberline {5}Resultados}{8}{section.5}
