\relax 
\providecommand\hyper@newdestlabel[2]{}
\catcode `"\active 
\providecommand\HyperFirstAtBeginDocument{\AtBeginDocument}
\HyperFirstAtBeginDocument{\ifx\hyper@anchor\@undefined
\global\let\oldcontentsline\contentsline
\gdef\contentsline#1#2#3#4{\oldcontentsline{#1}{#2}{#3}}
\global\let\oldnewlabel\newlabel
\gdef\newlabel#1#2{\newlabelxx{#1}#2}
\gdef\newlabelxx#1#2#3#4#5#6{\oldnewlabel{#1}{{#2}{#3}}}
\AtEndDocument{\ifx\hyper@anchor\@undefined
\let\contentsline\oldcontentsline
\let\newlabel\oldnewlabel
\fi}
\fi}
\global\let\hyper@last\relax 
\gdef\HyperFirstAtBeginDocument#1{#1}
\providecommand\HyField@AuxAddToFields[1]{}
\providecommand\HyField@AuxAddToCoFields[2]{}
\babel@aux{brazil}{}
\@writefile{toc}{\contentsline {section}{\numberline {1}Descri\IeC {\c c}\IeC {\~a}o do Problema}{3}{section.1}}
\@writefile{toc}{\contentsline {section}{\numberline {2}Problema}{3}{section.2}}
\@writefile{toc}{\contentsline {section}{\numberline {3}Proposta}{3}{section.3}}
\@writefile{toc}{\contentsline {subsection}{\numberline {3.1}Parte II}{3}{subsection.3.1}}
\@writefile{toc}{\contentsline {subsection}{\numberline {3.2}Parte III}{3}{subsection.3.2}}
\@writefile{toc}{\contentsline {section}{\numberline {4}Solu\IeC {\c c}\IeC {\~a}o}{4}{section.4}}
\@writefile{toc}{\contentsline {subsection}{\numberline {4.1}Parte I e II}{4}{subsection.4.1}}
\@writefile{lol}{\contentsline {lstlisting}{\numberline {1}Calcula o n\IeC {\'u}mero m\IeC {\'a}ximo de permuta\IeC {\c c}\IeC {\~o}es poss\IeC {\'\i }veis considerando "f" n\IeC {\'u}meros para definir o tamanho da lista de elementos permutados.}{4}{lstlisting.1}}
\@writefile{lol}{\contentsline {lstlisting}{\numberline {2}Realiza a permuta\IeC {\c c}\IeC {\~a}o dos elementos de uma lista, definindo assim, todos os poss\IeC {\'\i }veis caminhos para o caixeiro viajane percorrer.}{4}{lstlisting.2}}
\@writefile{lol}{\contentsline {lstlisting}{\numberline {3}Preenche a matriz \textit  {euclidean\_coordinates} com os valores presentes no arquivo de entrada.}{5}{lstlisting.3}}
\@writefile{lol}{\contentsline {lstlisting}{\numberline {4}Calcula a matriz de adjac\IeC {\^e}ncia \textit  {adjacency\_matrix} a partir da matriz de coordenadas euclidianas, \textit  {euclidean\_coordinates}.}{5}{lstlisting.4}}
\@writefile{lol}{\contentsline {lstlisting}{\numberline {5}A partir das permuta\IeC {\c c}\IeC {\~o}es geredas, definidas em \textit  {p}, calcula o custo total de cada caminho existente. Al\IeC {\'e}m, calcula o caminho m\IeC {\'\i }nimo, atrav\IeC {\'e}s da compra\IeC {\c c}\IeC {\~a}o simples, e armazena em \textit  {minimum\_coast}. Os dados gerados s\IeC {\~a}o armazenados no arquivo de sa\IeC {\'\i }da definido em \textit  {argv[2]}.}{5}{lstlisting.5}}
\@writefile{toc}{\contentsline {subsection}{\numberline {4.2}Parte III}{6}{subsection.4.2}}
\@writefile{lol}{\contentsline {lstlisting}{\numberline {6}Realiza o Algoritmo do Vizinho mais Proximo, utilizando as variave\IeC {\'\i }s \textit  {nn\_path}, para armazenar o caminho percorrido, \textit  {nn\_weight}, para o peso do menos caminho possivel e \textit  {nn\_length}, pra o tamanho da matriz.}{6}{lstlisting.6}}
\@writefile{lol}{\contentsline {lstlisting}{\numberline {7}Pesquisa utilizando a heuristica de Vizinho mais Proximo atrav\IeC {\'e}s da classe \textit  {NearestNeighbor}.}{7}{lstlisting.7}}
\@writefile{toc}{\contentsline {section}{\numberline {5}Resultados}{8}{section.5}}
\providecommand*\caption@xref[2]{\@setref\relax\@undefined{#1}}
\newlabel{fig:in-cities-4}{{1a}{8}{Subfigure 1a}{subfigure.1.1}{}}
\newlabel{sub@fig:in-cities-4}{{(a)}{a}{Subfigure 1a\relax }{subfigure.1.1}{}}
\newlabel{fig:out-cities-4}{{1b}{8}{Subfigure 1b}{subfigure.1.2}{}}
\newlabel{sub@fig:out-cities-4}{{(b)}{b}{Subfigure 1b\relax }{subfigure.1.2}{}}
\@writefile{lof}{\contentsline {figure}{\numberline {1}{\ignorespaces Solu\IeC {\c c}\IeC {\~a}o para quatro cidades.\relax }}{8}{figure.caption.3}}
\newlabel{cities-4}{{1}{8}{Solução para quatro cidades.\relax }{figure.caption.3}{}}
\@writefile{lof}{\contentsline {subfigure}{\numberline{(a)}{\ignorespaces {Entrada}}}{8}{subfigure.1.1}}
\@writefile{lof}{\contentsline {subfigure}{\numberline{(b)}{\ignorespaces {Saida}}}{8}{subfigure.1.2}}
\newlabel{fig:in-cities-5}{{2a}{8}{Subfigure 2a}{subfigure.2.1}{}}
\newlabel{sub@fig:in-cities-5}{{(a)}{a}{Subfigure 2a\relax }{subfigure.2.1}{}}
\newlabel{fig:out-cities-5}{{2b}{8}{Subfigure 2b}{subfigure.2.2}{}}
\newlabel{sub@fig:out-cities-5}{{(b)}{b}{Subfigure 2b\relax }{subfigure.2.2}{}}
\@writefile{lof}{\contentsline {figure}{\numberline {2}{\ignorespaces Solu\IeC {\c c}\IeC {\~a}o para cinco cidades.\relax }}{8}{figure.caption.4}}
\newlabel{cities-5}{{2}{8}{Solução para cinco cidades.\relax }{figure.caption.4}{}}
\@writefile{lof}{\contentsline {subfigure}{\numberline{(a)}{\ignorespaces {Entrada}}}{8}{subfigure.2.1}}
\@writefile{lof}{\contentsline {subfigure}{\numberline{(b)}{\ignorespaces {Saida}}}{8}{subfigure.2.2}}
\newlabel{graf:fb}{{5}{9}{Resultados}{figure.caption.4}{}}
\newlabel{graf:nn}{{5}{9}{Resultados}{figure.caption.4}{}}
\newlabel{graf:ot}{{5}{10}{Resultados}{figure.caption.4}{}}
